trunk/twoFF_fast_4phase/dump.vcd
$date
	Tue Feb 21 11:40:23 2012
$end
$version
	Icarus Verilog
$end
$timescale
	1s
$end
$scope module and3 $end
$var wire 1 ! a $end
$var wire 1 " b $end
$var wire 1 # c $end
$var wire 1 $ q $end
$upscope $end
$scope module celement $end
$var wire 1 % a $end
$var wire 1 & b $end
$var wire 1 ' reset $end
$var reg 1 ( q $end
$upscope $end
$scope module delay $end
$var wire 1 ) i $end
$var wire 1 * q $end
$upscope $end
$scope module dff $end
$var wire 1 + clk $end
$var wire 1 , d $end
$var wire 1 - q $end
$var wire 1 . q_bar $end
$var wire 1 / reset $end
$var reg 1 0 q_i $end
$upscope $end
$scope module mux $end
$var wire 2 1 a [1:0] $end
$var wire 1 2 q $end
$var wire 1 3 s $end
$upscope $end
$scope module or3 $end
$var wire 1 4 DEALAY $end
$var wire 1 5 a $end
$var wire 1 6 b $end
$var wire 1 7 c $end
$var wire 1 8 q $end
$upscope $end
$scope module regdata $end
$var wire 8 9 a [7:0] $end
$var wire 1 : clk $end
$var wire 8 ; q [7:0] $end
$var wire 1 < reset $end
$var reg 8 = q_i [7:0] $end
$upscope $end
$scope module srlatch $end
$var wire 1 > q_i $end
$var wire 1 ? qbar_i $end
$var wire 1 @ r $end
$var wire 1 A s $end
$var reg 1 B q $end
$var reg 1 C qbar $end
$scope module norx $end
$var wire 1 A a $end
$var wire 1 > b $end
$var wire 1 ? q $end
$upscope $end
$scope module nory $end
$var wire 1 @ a $end
$var wire 1 ? b $end
$var wire 1 > q $end
$upscope $end
$upscope $end
$scope module sync_tb $end
$var wire 8 D outs [7:0] $end
$var wire 1 E snt $end
$var wire 1 F vo $end
$var reg 1 G clk1 $end
$var reg 1 H clk2 $end
$var reg 8 I data_core [7:0] $end
$var reg 1 J reset $end
$var reg 1 K vi $end
$scope module sync1 $end
$var wire 1 L ack $end
$var wire 1 M clk_rx $end
$var wire 1 N clk_tx $end
$var wire 8 O data [7:0] $end
$var wire 8 P indata [7:0] $end
$var wire 8 Q rdata1 [7:0] $end
$var wire 1 R req $end
$var wire 1 S reset $end
$var wire 1 T snt1 $end
$var wire 1 U vi $end
$var wire 1 V vo1 $end
$var reg 8 W rdata [7:0] $end
$var reg 1 X snt $end
$var reg 1 Y vo $end
$scope module tx $end
$var wire 1 Z a2 $end
$var wire 1 [ a2d $end
$var wire 1 \ a2not $end
$var wire 1 ] a2p $end
$var wire 1 L ack $end
$var wire 1 N clk_tx $end
$var wire 8 ^ data1 [7:0] $end
$var wire 1 _ en $end
$var wire 1 ` en2 $end
$var wire 1 a f7in $end
$var wire 1 b nota2d $end
$var wire 1 c req1 $end
$var wire 1 S reset $end
$var wire 8 d sdata [7:0] $end
$var wire 1 e snt1 $end
$var wire 1 U vi $end
$var reg 8 f data [7:0] $end
$var reg 1 g req $end
$var reg 1 h snt $end
$scope module tfsm $end
$var wire 1 [ a2d $end
$var wire 1 ] a2p $end
$var wire 1 N clk $end
$var wire 1 S reset $end
$var wire 1 U vi $end
$var reg 2 i current_state [1:0] $end
$var reg 1 j en $end
$var reg 2 k next_state [1:0] $end
$var reg 1 l snt $end
$upscope $end
$scope module inv1 $end
$var wire 1 Z i $end
$var wire 1 \ idash $end
$upscope $end
$scope module regd $end
$var wire 8 m a [7:0] $end
$var wire 1 N clk $end
$var wire 1 ` en $end
$var wire 1 \ enstar $end
$var wire 8 n q [7:0] $end
$var wire 1 S reset $end
$var reg 8 o q_i [7:0] $end
$upscope $end
$scope module ora $end
$var wire 1 _ a $end
$var wire 1 ] b $end
$var wire 1 ` q $end
$upscope $end
$scope module regv $end
$var wire 1 U a $end
$var wire 1 N clk $end
$var wire 1 ` en $end
$var wire 1 \ enstar $end
$var wire 1 c q $end
$var wire 1 Z reset $end
$var reg 1 p q_i $end
$upscope $end
$scope module f5 $end
$var wire 1 N clk $end
$var wire 1 L d $end
$var wire 1 Z q $end
$var wire 1 S reset $end
$var reg 1 q q_i $end
$upscope $end
$scope module f6 $end
$var wire 1 N clk $end
$var wire 1 Z d $end
$var wire 1 [ q $end
$var wire 1 S reset $end
$var reg 1 r q_i $end
$upscope $end
$scope module not1 $end
$var wire 1 [ i $end
$var wire 1 b idash $end
$upscope $end
$scope module and1 $end
$var wire 1 b a $end
$var wire 1 Z b $end
$var wire 1 a q $end
$upscope $end
$scope module f7 $end
$var wire 1 N clk $end
$var wire 1 a d $end
$var wire 1 ] q $end
$var wire 1 S reset $end
$var reg 1 s q_i $end
$upscope $end
$upscope $end
$scope module rx $end
$var wire 1 t ack1 $end
$var wire 1 u arnot $end
$var wire 1 M clk_rx $end
$var wire 8 v data [7:0] $end
$var wire 1 w f3in $end
$var wire 1 x r2 $end
$var wire 1 y r2d $end
$var wire 1 z r2dnot $end
$var wire 8 { rdata1 [7:0] $end
$var wire 1 R req $end
$var wire 1 S reset $end
$var wire 1 | vo1 $end
$var reg 1 } ack $end
$var reg 8 ~ rdata [7:0] $end
$var reg 1 !" vo $end
$scope module regr $end
$var wire 8 "" a [7:0] $end
$var wire 1 M clk $end
$var wire 1 x en $end
$var wire 8 #" q [7:0] $end
$var wire 1 S reset $end
$var reg 8 $" q_i [7:0] $end
$upscope $end
$scope module f1 $end
$var wire 1 M clk $end
$var wire 1 R d $end
$var wire 1 x q $end
$var wire 1 S reset $end
$var reg 1 %" q_i $end
$upscope $end
$scope module f2 $end
$var wire 1 M clk $end
$var wire 1 x d $end
$var wire 1 y q $end
$var wire 1 S reset $end
$var reg 1 &" q_i $end
$upscope $end
$scope module inv1 $end
$var wire 1 y i $end
$var wire 1 z idash $end
$upscope $end
$scope module and1 $end
$var wire 1 x a $end
$var wire 1 z b $end
$var wire 1 w q $end
$upscope $end
$scope module f3 $end
$var wire 1 M clk $end
$var wire 1 w d $end
$var wire 1 | q $end
$var wire 1 S reset $end
$var reg 1 '" q_i $end
$upscope $end
$scope module inv2 $end
$var wire 1 x i $end
$var wire 1 u idash $end
$upscope $end
$scope module f4 $end
$var wire 1 M clk $end
$var wire 1 x d $end
$var wire 1 t q $end
$var wire 1 u reset $end
$var reg 1 (" q_i $end
$upscope $end
$upscope $end
$upscope $end
$upscope $end
$scope module tff $end
$var wire 1 )" clk $end
$var wire 1 *" q $end
$var wire 1 +" qbar $end
$var wire 1 ," reset $end
$var wire 1 -" t $end
$var reg 1 ." q_i $end
$upscope $end
$scope module xor2 $end
$var wire 1 /" a $end
$var wire 1 0" b $end
$var wire 1 1" q $end
$upscope $end
$scope module xor3 $end
$var wire 1 2" a $end
$var wire 1 3" b $end
$var wire 1 4" c $end
$var wire 1 5" q $end
$upscope $end
$enddefinitions $end
#0
$dumpvars
x5"
z4"
z3"
z2"
x1"
z0"
z/"
x."
z-"
z,"
x+"
x*"
z)"
x("
x'"
x&"
x%"
bx $"
bx #"
bx ""
x!"
bx ~
x}
x|
bx {
xz
xy
xx
xw
bx v
xu
xt
xs
xr
xq
xp
bx o
bx n
bx m
0l
b1 k
0j
bx i
0h
xg
bx f
0e
bx d
xc
xb
xa
x`
0_
bx ^
x]
x\
x[
xZ
xY
0X
bx W
xV
0U
0T
xS
xR
bx Q
bx P
bx O
0N
0M
xL
0K
xJ
bx I
0H
0G
xF
0E
bx D
xC
xB
zA
z@
x?
x>
bx =
z<
bx ;
z:
bz 9
x8
z7
z6
z5
z4
z3
z2
bz 1
x0
z/
x.
x-
z,
z+
z*
z)
x(
z'
z&
z%
x$
z#
z"
z!
$end
#1
b1 k
0%"
0&"
0'"
b0 $"
b0 i
0q
0r
0s
b0 o
z2
1J
1S
1H
1M
1G
1N
z*
#2
b0 W
b0 D
0Y
0F
0!"
0V
b0 ~
b0 Q
b1 k
b0 f
b0 O
b0 v
b0 ""
0x
0y
0|
b0 {
b0 #"
0Z
0[
0]
b0 ^
b0 n
b10101111 I
b10101111 P
b10101111 d
b10101111 m
0H
0M
0G
0N
#3
1j
1_
0("
x%"
xq
b1 i
0w
0a
0`
1u
1z
1\
1b
0J
0S
1H
1M
1G
1N
#4
b10101111 o
1p
0}
0L
b10 k
1`
0t
xx
xZ
1K
1U
0H
0M
0G
0N
#5
1X
1E
1h
1T
b11 k
1l
1e
0j
0_
x("
x&"
x'"
b10 i
0q
xr
xs
1g
1R
b10101111 f
b10101111 O
b10101111 v
b10101111 ""
b10101111 ^
b10101111 n
1c
xw
xa
xu
x\
1H
1M
1G
1N
#6
xY
xF
x!"
xV
x}
xL
b11 k
0`
xt
xy
x|
0Z
x[
x]
0H
0M
0G
0N
#7
1%"
0s
0r
xq
b11 i
0a
x`
xz
1\
xb
1H
1M
1G
1N
#8
b10101111 $"
0X
0E
0h
0T
0l
0e
1x
0]
0[
xZ
0H
0M
0G
0N
#9
1("
1&"
xr
xs
b10101111 W
b10101111 D
b10101111 ~
b10101111 Q
b10101111 {
b10101111 #"
0`
xa
0u
1b
x\
1H
1M
1G
1N
0K
0U
#10
1}
1L
1t
1y
x[
x]
0H
0M
0G
0N
#11
1q
x`
0z
xb
1H
1M
1G
1N
#12
0p
1Z
0w
0H
0M
0G
0N
#13
0'"
1r
0g
0R
0c
0\
1H
1M
1G
1N
#14
0Y
0F
0!"
0V
0|
1[
0H
0M
0G
0N
#15
0%"
0b
1H
1M
1G
1N
#16
0x
0a
0H
0M
0G
0N
#17
0("
0&"
0s
1u
1H
1M
1G
1N
#18
0}
0L
0t
0y
0]
0H
0M
0G
0N
#19
0q
0`
1z
1H
1M
1G
1N
#20
0Z
0H
0M
0G
0N
#21
0r
1\
1H
1M
1G
1N
#22
0[
0H
0M
0G
0N
#23
1b
1H
1M
1G
1N
