twoFF_fast_4phase/dump.vcd
$date
	Fri Feb 24 12:51:27 2012
$end
$version
	Icarus Verilog
$end
$timescale
	1s
$end
$scope module and3 $end
$var wire 1 ! a $end
$var wire 1 " b $end
$var wire 1 # c $end
$var wire 1 $ q $end
$upscope $end
$scope module celement $end
$var wire 1 % a $end
$var wire 1 & b $end
$var wire 1 ' reset $end
$var reg 1 ( q $end
$upscope $end
$scope module delay $end
$var wire 1 ) i $end
$var wire 1 * q $end
$upscope $end
$scope module dff $end
$var wire 1 + clk $end
$var wire 1 , d $end
$var wire 1 - q $end
$var wire 1 . q_bar $end
$var wire 1 / reset $end
$var reg 1 0 q_i $end
$upscope $end
$scope module mux $end
$var wire 2 1 a [1:0] $end
$var wire 1 2 q $end
$var wire 1 3 s $end
$upscope $end
$scope module or3 $end
$var wire 1 4 DEALAY $end
$var wire 1 5 a $end
$var wire 1 6 b $end
$var wire 1 7 c $end
$var wire 1 8 q $end
$upscope $end
$scope module regdata $end
$var wire 8 9 a [7:0] $end
$var wire 1 : clk $end
$var wire 8 ; q [7:0] $end
$var wire 1 < reset $end
$var reg 8 = q_i [7:0] $end
$upscope $end
$scope module srlatch $end
$var wire 1 > q_i $end
$var wire 1 ? qbar_i $end
$var wire 1 @ r $end
$var wire 1 A s $end
$var reg 1 B q $end
$var reg 1 C qbar $end
$scope module norx $end
$var wire 1 A a $end
$var wire 1 > b $end
$var wire 1 ? q $end
$upscope $end
$scope module nory $end
$var wire 1 @ a $end
$var wire 1 ? b $end
$var wire 1 > q $end
$upscope $end
$upscope $end
$scope module sync_tb $end
$var wire 8 D outs [7:0] $end
$var wire 1 E snt $end
$var wire 1 F vo $end
$var reg 1 G clk1 $end
$var reg 1 H clk2 $end
$var reg 8 I data_core [7:0] $end
$var integer 32 J k [31:0] $end
$var reg 1 K reset $end
$var reg 1 L vi $end
$scope module sync1 $end
$var wire 1 M ack $end
$var wire 1 N clk_rx $end
$var wire 1 O clk_tx $end
$var wire 8 P data [7:0] $end
$var wire 8 Q indata [7:0] $end
$var wire 8 R rdata1 [7:0] $end
$var wire 1 S req $end
$var wire 1 T reset $end
$var wire 1 U snt1 $end
$var wire 1 V vi $end
$var wire 1 W vo1 $end
$var reg 8 X rdata [7:0] $end
$var reg 1 Y snt $end
$var reg 1 Z vo $end
$scope module tx $end
$var wire 1 [ a2 $end
$var wire 1 \ a2d $end
$var wire 1 ] a2not $end
$var wire 1 ^ a2p $end
$var wire 1 M ack $end
$var wire 1 O clk_tx $end
$var wire 8 _ data1 [7:0] $end
$var wire 1 ` en $end
$var wire 1 a en2 $end
$var wire 1 b f7in $end
$var wire 1 c nota2d $end
$var wire 1 d req1 $end
$var wire 1 T reset $end
$var wire 8 e sdata [7:0] $end
$var wire 1 f snt1 $end
$var wire 1 V vi $end
$var reg 8 g data [7:0] $end
$var reg 1 h req $end
$var reg 1 i snt $end
$scope module tfsm $end
$var wire 1 \ a2d $end
$var wire 1 ^ a2p $end
$var wire 1 O clk $end
$var wire 1 T reset $end
$var wire 1 V vi $end
$var reg 2 j current_state [1:0] $end
$var reg 1 k en $end
$var reg 2 l next_state [1:0] $end
$var reg 1 m snt $end
$upscope $end
$scope module inv1 $end
$var wire 1 [ i $end
$var wire 1 ] idash $end
$upscope $end
$scope module regd $end
$var wire 8 n a [7:0] $end
$var wire 1 O clk $end
$var wire 1 a en $end
$var wire 1 ] enstar $end
$var wire 8 o q [7:0] $end
$var wire 1 T reset $end
$var reg 8 p q_i [7:0] $end
$upscope $end
$scope module ora $end
$var wire 1 ` a $end
$var wire 1 ^ b $end
$var wire 1 a q $end
$upscope $end
$scope module regv $end
$var wire 1 V a $end
$var wire 1 O clk $end
$var wire 1 a en $end
$var wire 1 ] enstar $end
$var wire 1 d q $end
$var wire 1 [ reset $end
$var reg 1 q q_i $end
$upscope $end
$scope module f5 $end
$var wire 1 O clk $end
$var wire 1 M d $end
$var wire 1 [ q $end
$var wire 1 T reset $end
$var reg 1 r q_i $end
$upscope $end
$scope module f6 $end
$var wire 1 O clk $end
$var wire 1 [ d $end
$var wire 1 \ q $end
$var wire 1 T reset $end
$var reg 1 s q_i $end
$upscope $end
$scope module not1 $end
$var wire 1 \ i $end
$var wire 1 c idash $end
$upscope $end
$scope module and1 $end
$var wire 1 c a $end
$var wire 1 [ b $end
$var wire 1 b q $end
$upscope $end
$scope module f7 $end
$var wire 1 O clk $end
$var wire 1 b d $end
$var wire 1 ^ q $end
$var wire 1 T reset $end
$var reg 1 t q_i $end
$upscope $end
$upscope $end
$scope module rx $end
$var wire 1 u ack1 $end
$var wire 1 v arnot $end
$var wire 1 N clk_rx $end
$var wire 8 w data [7:0] $end
$var wire 1 x f3in $end
$var wire 1 y r2 $end
$var wire 1 z r2d $end
$var wire 1 { r2dnot $end
$var wire 8 | rdata1 [7:0] $end
$var wire 1 S req $end
$var wire 1 T reset $end
$var wire 1 } vo1 $end
$var reg 1 ~ ack $end
$var reg 8 !" rdata [7:0] $end
$var reg 1 "" vo $end
$scope module regr $end
$var wire 8 #" a [7:0] $end
$var wire 1 N clk $end
$var wire 1 y en $end
$var wire 8 $" q [7:0] $end
$var wire 1 T reset $end
$var reg 8 %" q_i [7:0] $end
$upscope $end
$scope module f1 $end
$var wire 1 N clk $end
$var wire 1 S d $end
$var wire 1 y q $end
$var wire 1 T reset $end
$var reg 1 &" q_i $end
$upscope $end
$scope module f2 $end
$var wire 1 N clk $end
$var wire 1 y d $end
$var wire 1 z q $end
$var wire 1 '" reset $end
$var reg 1 (" q_i $end
$upscope $end
$scope module inv1 $end
$var wire 1 z i $end
$var wire 1 { idash $end
$upscope $end
$scope module and1 $end
$var wire 1 y a $end
$var wire 1 { b $end
$var wire 1 x q $end
$upscope $end
$scope module f3 $end
$var wire 1 N clk $end
$var wire 1 x d $end
$var wire 1 } q $end
$var wire 1 T reset $end
$var reg 1 )" q_i $end
$upscope $end
$scope module inv2 $end
$var wire 1 y i $end
$var wire 1 v idash $end
$upscope $end
$scope module f4 $end
$var wire 1 N clk $end
$var wire 1 y d $end
$var wire 1 u q $end
$var wire 1 v reset $end
$var reg 1 *" q_i $end
$upscope $end
$upscope $end
$upscope $end
$upscope $end
$scope module tff $end
$var wire 1 +" clk $end
$var wire 1 ," q $end
$var wire 1 -" qbar $end
$var wire 1 ." reset $end
$var wire 1 /" t $end
$var reg 1 0" q_i $end
$upscope $end
$scope module xor2 $end
$var wire 1 1" a $end
$var wire 1 2" b $end
$var wire 1 3" q $end
$upscope $end
$scope module xor3 $end
$var wire 1 4" a $end
$var wire 1 5" b $end
$var wire 1 6" c $end
$var wire 1 7" q $end
$upscope $end
$enddefinitions $end
#0
$dumpvars
x7"
z6"
z5"
z4"
x3"
z2"
z1"
x0"
z/"
z."
x-"
x,"
z+"
x*"
x)"
x("
x'"
x&"
bx %"
bx $"
bx #"
x""
bx !"
x~
x}
bx |
x{
xz
xy
xx
bx w
xv
xu
xt
xs
xr
xq
bx p
bx o
bx n
xm
bx l
xk
bx j
xi
xh
bx g
xf
bx e
xd
xc
xb
xa
x`
bx _
x^
x]
x\
x[
xZ
xY
bx X
xW
xV
xU
xT
xS
bx R
bx Q
bx P
0O
0N
xM
xL
xK
bx J
bx I
0H
0G
xF
xE
bx D
xC
xB
zA
z@
x?
x>
bx =
z<
bx ;
z:
bz 9
x8
z7
z6
z5
z4
z3
z2
bz 1
x0
z/
x.
x-
z,
z+
z*
z)
x(
z'
z&
z%
x$
z#
z"
z!
$end
#1
0Y
0E
0i
0U
b1 l
0m
0f
0k
0`
z2
0L
0V
1H
1N
1G
1O
z*
#2
b1 l
0)"
0&"
b0 %"
0t
0s
0r
b0 j
b0 p
b1 J
1K
1T
0H
0N
0G
0O
#3
1k
1`
0*"
x&"
x)"
0("
b1 j
xr
xt
b0 X
b0 D
0Z
0F
1'"
0""
0W
b0 !"
b0 R
b1 l
b0 g
b0 P
b0 w
b0 #"
0}
0y
b0 |
b0 $"
0^
0\
0[
b0 _
b0 o
0K
0T
1H
1N
1G
1O
#4
0q
xZ
xF
x'"
x""
xW
0~
0M
0u
xy
x}
0z
x[
x^
0x
1a
0b
1v
1c
1]
b0 I
b0 Q
b0 e
b0 n
0H
0N
0G
0O
#5
x*"
x("
xs
0r
0h
0S
b10 l
0d
xx
xb
xv
1{
x]
1L
1V
1H
1N
1G
1O
#6
x~
xM
b1 l
xu
xz
x\
0[
0H
0N
0G
0O
#7
0&"
xr
0s
0t
0b
x{
xc
1]
1H
1N
1G
1O
b10 J
0L
0V
#8
0("
1'"
0y
x[
0\
0^
0H
0N
0G
0O
b10001 I
b10001 Q
b10001 e
b10001 n
#9
1Y
1E
1i
1U
1m
1f
0k
0`
0*"
0)"
xt
xs
b10 j
b11 l
0z
0x
xb
1v
x]
1c
1H
1N
1G
1O
1L
1V
#10
0Z
0F
0""
0W
0~
0M
b11 l
0a
0u
0}
x^
x\
1{
0H
0N
0G
0O
#11
0Y
0E
0i
0U
0m
0f
b11 j
0r
b11 l
xa
xc
1H
1N
1G
1O
b11 J
0L
0V
#12
0[
0H
0N
0G
0O
b0 I
b0 Q
b0 e
b0 n
#13
0t
0s
0b
1]
1H
1N
1G
1O
1L
1V
#14
0^
0\
0H
0N
0G
0O
#15
0a
1c
1H
1N
1G
1O
b100 J
0L
0V
#16
0H
0N
0G
0O
b10001 I
b10001 Q
b10001 e
b10001 n
#17
1H
1N
1G
1O
1L
1V
#18
0H
0N
0G
0O
#19
1H
1N
1G
1O
b101 J
0L
0V
